^C:\WORK_IDTECH\_CODE\PRODUCTS\PCTOOLS\002_CUSTOMER\2017\U1.5_USBKB\_NOW\00_IDT_USB_HID_DLL_TW\RELEASE\IDT_USB_HID.OBJ|C:\WORK_IDTECH\_CODE\PRODUCTS\PCTOOLS\002_CUSTOMER\2017\U1.5_USBKB\_NOW\00_IDT_USB_HID_DLL_TW\RELEASE\STDAFX.OBJ|C:\WORK_IDTECH\_CODE\PRODUCTS\PCTOOLS\002_CUSTOMER\2017\U1.5_USBKB\_NOW\00_IDT_USB_HID_DLL_TW\RELEASE\TCONVERT.OBJ|C:\WORK_IDTECH\_CODE\PRODUCTS\PCTOOLS\002_CUSTOMER\2017\U1.5_USBKB\_NOW\00_IDT_USB_HID_DLL_TW\RELEASE\USB_HID_IDTW.OBJ|C:\WORK_IDTECH\_CODE\PRODUCTS\PCTOOLS\002_CUSTOMER\2017\U1.5_USBKB\_NOW\00_IDT_USB_HID_DLL_TW\RELEASE\USB_HID_IDTW.RES|C:\WORK_IDTECH\_CODE\PRODUCTS\PCTOOLS\002_CUSTOMER\2017\U1.5_USBKB\_NOW\00_IDT_USB_HID_DLL_TW\RELEASE\USB_HID_IDTW_EXT01.OBJ
/OUT:"C:\WORK_IDTECH\_CODE\PRODUCTS\PCTOOLS\002_CUSTOMER\2017\U1.5_USBKB\_NOW\RELEASE\USB_HID_IDTW_32BIT.DLL" /INCREMENTAL:NO /NOLOGO /FORCE:MULTIPLE /DEF:".\USB_HID_IDTW.DEF" /MANIFEST:NO /DEBUG /PDB:"C:\WORK_IDTECH\_CODE\PRODUCTS\PCTOOLS\002_CUSTOMER\2017\U1.5_USBKB\_NOW\RELEASE\USB_HID_IDTW.PDB" /SUBSYSTEM:WINDOWS,"5.01" /OPT:REF /OPT:ICF /LTCG /TLBID:1 /DYNAMICBASE /NXCOMPAT /IMPLIB:"C:\WORK_IDTECH\_CODE\PRODUCTS\PCTOOLS\002_CUSTOMER\2017\U1.5_USBKB\_NOW\RELEASE\USB_HID_IDTW.LIB" /MACHINE:X86 /SAFESEH /DLL RELEASE\USB_HID_IDTW.RESRELEASE\IDT_USB_HID.OBJRELEASE\USB_HID_IDTW.OBJRELEASE\STDAFX.OBJRELEASE\TCONVERT.OBJRELEASE\USB_HID_IDTW_EXT01.OBJ
^C:\WORK_IDTECH\_CODE\PRODUCTS\PCTOOLS\002_CUSTOMER\2017\FELICASDK\_NOW\00_IDT_USB_HID_DLL_TW\RELEASE\IDT_USB_HID.OBJ|C:\WORK_IDTECH\_CODE\PRODUCTS\PCTOOLS\002_CUSTOMER\2017\FELICASDK\_NOW\00_IDT_USB_HID_DLL_TW\RELEASE\STDAFX.OBJ|C:\WORK_IDTECH\_CODE\PRODUCTS\PCTOOLS\002_CUSTOMER\2017\FELICASDK\_NOW\00_IDT_USB_HID_DLL_TW\RELEASE\TCONVERT.OBJ|C:\WORK_IDTECH\_CODE\PRODUCTS\PCTOOLS\002_CUSTOMER\2017\FELICASDK\_NOW\00_IDT_USB_HID_DLL_TW\RELEASE\USB_HID_IDTW.OBJ|C:\WORK_IDTECH\_CODE\PRODUCTS\PCTOOLS\002_CUSTOMER\2017\FELICASDK\_NOW\00_IDT_USB_HID_DLL_TW\RELEASE\USB_HID_IDTW.RES|C:\WORK_IDTECH\_CODE\PRODUCTS\PCTOOLS\002_CUSTOMER\2017\FELICASDK\_NOW\00_IDT_USB_HID_DLL_TW\RELEASE\USB_HID_IDTW_EXT01.OBJ
/OUT:"C:\WORK_IDTECH\_CODE\PRODUCTS\PCTOOLS\002_CUSTOMER\2017\FELICASDK\_NOW\RELEASE\USB_HID_IDTW_32BIT.DLL" /INCREMENTAL:NO /NOLOGO /FORCE:MULTIPLE /DEF:".\USB_HID_IDTW.DEF" /MANIFEST:NO /DEBUG /PDB:"C:\WORK_IDTECH\_CODE\PRODUCTS\PCTOOLS\002_CUSTOMER\2017\FELICASDK\_NOW\RELEASE\USB_HID_IDTW.PDB" /SUBSYSTEM:WINDOWS,"5.01" /OPT:REF /OPT:ICF /LTCG /TLBID:1 /DYNAMICBASE /NXCOMPAT /IMPLIB:"C:\WORK_IDTECH\_CODE\PRODUCTS\PCTOOLS\002_CUSTOMER\2017\FELICASDK\_NOW\RELEASE\USB_HID_IDTW.LIB" /MACHINE:X86 /SAFESEH /DLL RELEASE\USB_HID_IDTW.RESRELEASE\IDT_USB_HID.OBJRELEASE\USB_HID_IDTW.OBJRELEASE\STDAFX.OBJRELEASE\TCONVERT.OBJRELEASE\USB_HID_IDTW_EXT01.OBJ
