^C:\WORK_IDTECH\_CODE\PRODUCTS\PCTOOLS\002_CUSTOMER\2017\U1.5_USBKB\_NOW\00_IDT_USB_HID_DLL_TW\USB_HID_IDTW.RC
/D NDEBUG /D _USING_V110_SDK71_ /l"0x0409" /IRelease\ /nologo /fo"RELEASE\USB_HID_IDTW.RES" USB_HID_IDTW.RC /D NDEBUG /D _USING_V110_SDK71_ /l"0x0409" /IRelease\ /nologo /fo"RELEASE\USB_HID_IDTW.RES" C:\WORK_IDTECH\_CODE\PRODUCTS\PCTOOLS\002_CUSTOMER\2017\U1.5_USBKB\_NOW\00_IDT_USB_HID_DLL_TW\USB_HID_IDTW.RC
^C:\WORK_IDTECH\_CODE\PRODUCTS\PCTOOLS\002_CUSTOMER\2017\FELICASDK\_NOW\00_IDT_USB_HID_DLL_TW\USB_HID_IDTW.RC
/D NDEBUG /D _USING_V110_SDK71_ /l"0x0409" /IRelease\ /nologo /fo"RELEASE\USB_HID_IDTW.RES" USB_HID_IDTW.RC /D NDEBUG /D _USING_V110_SDK71_ /l"0x0409" /IRelease\ /nologo /fo"RELEASE\USB_HID_IDTW.RES" C:\WORK_IDTECH\_CODE\PRODUCTS\PCTOOLS\002_CUSTOMER\2017\FELICASDK\_NOW\00_IDT_USB_HID_DLL_TW\USB_HID_IDTW.RC
