^C:\WORK_IDTECH\_CODE\PRODUCTS\PCTOOLS\002_CUSTOMER\2017\FELICASDK\_NOW\00_IDT_USB_HID_DLL_TW\STDAFX.CPP
C:\PROGRAM FILES (X86)\MICROSOFT VISUAL STUDIO 11.0\VC\BIN\1033\CLUI.DLL
C:\WINDOWS\GLOBALIZATION\SORTING\SORTDEFAULT.NLS
C:\WINDOWS\SYSTEM32\TZRES.DLL
C:\WORK_IDTECH\_CODE\PRODUCTS\PCTOOLS\002_CUSTOMER\2017\FELICASDK\_NOW\00_IDT_USB_HID_DLL_TW\STDAFX.H
C:\WORK_IDTECH\_CODE\PRODUCTS\PCTOOLS\002_CUSTOMER\2017\FELICASDK\_NOW\00_IDT_USB_HID_DLL_TW\TARGETVER.H
C:\PROGRAM FILES (X86)\MICROSOFT SDKS\WINDOWS\V7.1A\INCLUDE\SDKDDKVER.H
C:\PROGRAM FILES (X86)\MICROSOFT VISUAL STUDIO 11.0\VC\ATLMFC\INCLUDE\AFXWIN.H
C:\PROGRAM FILES (X86)\MICROSOFT VISUAL STUDIO 11.0\VC\ATLMFC\INCLUDE\AFX.H
C:\PROGRAM FILES (X86)\MICROSOFT VISUAL STUDIO 11.0\VC\INCLUDE\NEW.H
C:\PROGRAM FILES (X86)\MICROSOFT VISUAL STUDIO 11.0\VC\INCLUDE\CRTDEFS.H
C:\PROGRAM FILES (X86)\MICROSOFT VISUAL STUDIO 11.0\VC\INCLUDE\SAL.H
C:\PROGRAM FILES (X86)\MICROSOFT VISUAL STUDIO 11.0\VC\INCLUDE\CONCURRENCYSAL.H
C:\PROGRAM FILES (X86)\MICROSOFT VISUAL STUDIO 11.0\VC\INCLUDE\VADEFS.H
C:\PROGRAM FILES (X86)\MICROSOFT VISUAL STUDIO 11.0\VC\ATLMFC\INCLUDE\AFXVER_.H
C:\PROGRAM FILES (X86)\MICROSOFT VISUAL STUDIO 11.0\VC\ATLMFC\INCLUDE\AFXV_W32.H
C:\PROGRAM FILES (X86)\MICROSOFT SDKS\WINDOWS\V7.1A\INCLUDE\WINSDKVER.H
C:\PROGRAM FILES (X86)\MICROSOFT SDKS\WINDOWS\V7.1A\INCLUDE\WINDOWS.H
C:\PROGRAM FILES (X86)\MICROSOFT VISUAL STUDIO 11.0\VC\INCLUDE\EXCPT.H
C:\PROGRAM FILES (X86)\MICROSOFT VISUAL STUDIO 11.0\VC\INCLUDE\STDARG.H
C:\PROGRAM FILES (X86)\MICROSOFT SDKS\WINDOWS\V7.1A\INCLUDE\WINDEF.H
C:\PROGRAM FILES (X86)\MICROSOFT SDKS\WINDOWS\V7.1A\INCLUDE\WINNT.H
C:\PROGRAM FILES (X86)\MICROSOFT VISUAL STUDIO 11.0\VC\INCLUDE\CTYPE.H
C:\PROGRAM FILES (X86)\MICROSOFT SDKS\WINDOWS\V7.1A\INCLUDE\SPECSTRINGS.H
C:\PROGRAM FILES (X86)\MICROSOFT SDKS\WINDOWS\V7.1A\INCLUDE\SAL_SUPP.H
C:\PROGRAM FILES (X86)\MICROSOFT SDKS\WINDOWS\V7.1A\INCLUDE\SPECSTRINGS_SUPP.H
C:\PROGRAM FILES (X86)\MICROSOFT SDKS\WINDOWS\V7.1A\INCLUDE\SPECSTRINGS_STRICT.H
C:\PROGRAM FILES (X86)\MICROSOFT SDKS\WINDOWS\V7.1A\INCLUDE\SPECSTRINGS_UNDEF.H
C:\PROGRAM FILES (X86)\MICROSOFT SDKS\WINDOWS\V7.1A\INCLUDE\DRIVERSPECS.H
C:\PROGRAM FILES (X86)\MICROSOFT SDKS\WINDOWS\V7.1A\INCLUDE\SDV_DRIVERSPECS.H
C:\PROGRAM FILES (X86)\MICROSOFT SDKS\WINDOWS\V7.1A\INCLUDE\KERNELSPECS.H
C:\PROGRAM FILES (X86)\MICROSOFT SDKS\WINDOWS\V7.1A\INCLUDE\BASETSD.H
C:\PROGRAM FILES (X86)\MICROSOFT SDKS\WINDOWS\V7.1A\INCLUDE\GUIDDEF.H
C:\PROGRAM FILES (X86)\MICROSOFT VISUAL STUDIO 11.0\VC\INCLUDE\STRING.H
C:\PROGRAM FILES (X86)\MICROSOFT SDKS\WINDOWS\V7.1A\INCLUDE\PSHPACK4.H
C:\PROGRAM FILES (X86)\MICROSOFT SDKS\WINDOWS\V7.1A\INCLUDE\POPPACK.H
C:\PROGRAM FILES (X86)\MICROSOFT SDKS\WINDOWS\V7.1A\INCLUDE\PSHPACK2.H
C:\PROGRAM FILES (X86)\MICROSOFT SDKS\WINDOWS\V7.1A\INCLUDE\PSHPACK8.H
C:\PROGRAM FILES (X86)\MICROSOFT SDKS\WINDOWS\V7.1A\INCLUDE\KTMTYPES.H
C:\PROGRAM FILES (X86)\MICROSOFT SDKS\WINDOWS\V7.1A\INCLUDE\WINBASE.H
C:\PROGRAM FILES (X86)\MICROSOFT SDKS\WINDOWS\V7.1A\INCLUDE\WINERROR.H
C:\PROGRAM FILES (X86)\MICROSOFT SDKS\WINDOWS\V7.1A\INCLUDE\WINGDI.H
C:\PROGRAM FILES (X86)\MICROSOFT SDKS\WINDOWS\V7.1A\INCLUDE\PSHPACK1.H
C:\PROGRAM FILES (X86)\MICROSOFT SDKS\WINDOWS\V7.1A\INCLUDE\WINUSER.H
C:\PROGRAM FILES (X86)\MICROSOFT SDKS\WINDOWS\V7.1A\INCLUDE\TVOUT.H
C:\PROGRAM FILES (X86)\MICROSOFT SDKS\WINDOWS\V7.1A\INCLUDE\WINNLS.H
C:\PROGRAM FILES (X86)\MICROSOFT SDKS\WINDOWS\V7.1A\INCLUDE\WINCON.H
C:\PROGRAM FILES (X86)\MICROSOFT SDKS\WINDOWS\V7.1A\INCLUDE\WINVER.H
C:\PROGRAM FILES (X86)\MICROSOFT SDKS\WINDOWS\V7.1A\INCLUDE\VERRSRC.H
C:\PROGRAM FILES (X86)\MICROSOFT SDKS\WINDOWS\V7.1A\INCLUDE\WINREG.H
C:\PROGRAM FILES (X86)\MICROSOFT SDKS\WINDOWS\V7.1A\INCLUDE\REASON.H
C:\PROGRAM FILES (X86)\MICROSOFT SDKS\WINDOWS\V7.1A\INCLUDE\WINNETWK.H
C:\PROGRAM FILES (X86)\MICROSOFT SDKS\WINDOWS\V7.1A\INCLUDE\WNNC.H
C:\PROGRAM FILES (X86)\MICROSOFT SDKS\WINDOWS\V7.1A\INCLUDE\STRALIGN.H
C:\PROGRAM FILES (X86)\MICROSOFT SDKS\WINDOWS\V7.1A\INCLUDE\ZMOUSE.H
C:\PROGRAM FILES (X86)\MICROSOFT SDKS\WINDOWS\V7.1A\INCLUDE\COMMCTRL.H
C:\PROGRAM FILES (X86)\MICROSOFT SDKS\WINDOWS\V7.1A\INCLUDE\PRSHT.H
C:\PROGRAM FILES (X86)\MICROSOFT VISUAL STUDIO 11.0\VC\INCLUDE\TCHAR.H
C:\PROGRAM FILES (X86)\MICROSOFT VISUAL STUDIO 11.0\VC\INCLUDE\STDIO.H
C:\PROGRAM FILES (X86)\MICROSOFT VISUAL STUDIO 11.0\VC\INCLUDE\SWPRINTF.INL
C:\PROGRAM FILES (X86)\MICROSOFT VISUAL STUDIO 11.0\VC\INCLUDE\STDLIB.H
C:\PROGRAM FILES (X86)\MICROSOFT VISUAL STUDIO 11.0\VC\INCLUDE\LIMITS.H
C:\PROGRAM FILES (X86)\MICROSOFT VISUAL STUDIO 11.0\VC\INCLUDE\TIME.H
C:\PROGRAM FILES (X86)\MICROSOFT VISUAL STUDIO 11.0\VC\INCLUDE\WTIME.INL
C:\PROGRAM FILES (X86)\MICROSOFT VISUAL STUDIO 11.0\VC\INCLUDE\TIME.INL
C:\PROGRAM FILES (X86)\MICROSOFT VISUAL STUDIO 11.0\VC\INCLUDE\STDDEF.H
C:\PROGRAM FILES (X86)\MICROSOFT VISUAL STUDIO 11.0\VC\INCLUDE\ERRNO.H
C:\PROGRAM FILES (X86)\MICROSOFT VISUAL STUDIO 11.0\VC\INCLUDE\MALLOC.H
C:\PROGRAM FILES (X86)\MICROSOFT VISUAL STUDIO 11.0\VC\INCLUDE\CRTDBG.H
C:\PROGRAM FILES (X86)\MICROSOFT VISUAL STUDIO 11.0\VC\ATLMFC\INCLUDE\ATLTRACE.H
C:\PROGRAM FILES (X86)\MICROSOFT VISUAL STUDIO 11.0\VC\ATLMFC\INCLUDE\ATLDEF.H
C:\PROGRAM FILES (X86)\MICROSOFT VISUAL STUDIO 11.0\VC\ATLMFC\INCLUDE\ATLRC.H
C:\PROGRAM FILES (X86)\MICROSOFT VISUAL STUDIO 11.0\VC\ATLMFC\INCLUDE\ATLCONV.H
C:\PROGRAM FILES (X86)\MICROSOFT VISUAL STUDIO 11.0\VC\ATLMFC\INCLUDE\ATLALLOC.H
C:\PROGRAM FILES (X86)\MICROSOFT SDKS\WINDOWS\V7.1A\INCLUDE\OLE2.H
C:\PROGRAM FILES (X86)\MICROSOFT SDKS\WINDOWS\V7.1A\INCLUDE\OBJBASE.H
C:\PROGRAM FILES (X86)\MICROSOFT SDKS\WINDOWS\V7.1A\INCLUDE\RPC.H
C:\PROGRAM FILES (X86)\MICROSOFT SDKS\WINDOWS\V7.1A\INCLUDE\RPCDCE.H
C:\PROGRAM FILES (X86)\MICROSOFT SDKS\WINDOWS\V7.1A\INCLUDE\RPCDCEP.H
C:\PROGRAM FILES (X86)\MICROSOFT SDKS\WINDOWS\V7.1A\INCLUDE\RPCNSI.H
C:\PROGRAM FILES (X86)\MICROSOFT SDKS\WINDOWS\V7.1A\INCLUDE\RPCNTERR.H
C:\PROGRAM FILES (X86)\MICROSOFT SDKS\WINDOWS\V7.1A\INCLUDE\RPCASYNC.H
C:\PROGRAM FILES (X86)\MICROSOFT SDKS\WINDOWS\V7.1A\INCLUDE\RPCNDR.H
C:\PROGRAM FILES (X86)\MICROSOFT SDKS\WINDOWS\V7.1A\INCLUDE\RPCNSIP.H
C:\PROGRAM FILES (X86)\MICROSOFT SDKS\WINDOWS\V7.1A\INCLUDE\RPCSAL.H
C:\PROGRAM FILES (X86)\MICROSOFT SDKS\WINDOWS\V7.1A\INCLUDE\WTYPES.H
C:\PROGRAM FILES (X86)\MICROSOFT SDKS\WINDOWS\V7.1A\INCLUDE\UNKNWN.H
C:\PROGRAM FILES (X86)\MICROSOFT SDKS\WINDOWS\V7.1A\INCLUDE\OBJIDL.H
C:\PROGRAM FILES (X86)\MICROSOFT SDKS\WINDOWS\V7.1A\INCLUDE\CGUID.H
C:\PROGRAM FILES (X86)\MICROSOFT SDKS\WINDOWS\V7.1A\INCLUDE\URLMON.H
C:\PROGRAM FILES (X86)\MICROSOFT SDKS\WINDOWS\V7.1A\INCLUDE\OLEIDL.H
C:\PROGRAM FILES (X86)\MICROSOFT SDKS\WINDOWS\V7.1A\INCLUDE\SERVPROV.H
C:\PROGRAM FILES (X86)\MICROSOFT SDKS\WINDOWS\V7.1A\INCLUDE\MSXML.H
C:\PROGRAM FILES (X86)\MICROSOFT SDKS\WINDOWS\V7.1A\INCLUDE\OAIDL.H
C:\PROGRAM FILES (X86)\MICROSOFT SDKS\WINDOWS\V7.1A\INCLUDE\PROPIDL.H
C:\PROGRAM FILES (X86)\MICROSOFT SDKS\WINDOWS\V7.1A\INCLUDE\OLEAUTO.H
C:\PROGRAM FILES (X86)\MICROSOFT VISUAL STUDIO 11.0\VC\ATLMFC\INCLUDE\ATLDEBUGAPI.H
C:\PROGRAM FILES (X86)\MICROSOFT VISUAL STUDIO 11.0\VC\ATLMFC\INCLUDE\AFXSTR.H
C:\PROGRAM FILES (X86)\MICROSOFT VISUAL STUDIO 11.0\VC\INCLUDE\MBSTRING.H
C:\PROGRAM FILES (X86)\MICROSOFT VISUAL STUDIO 11.0\VC\ATLMFC\INCLUDE\ATLCORE.H
C:\PROGRAM FILES (X86)\MICROSOFT VISUAL STUDIO 11.0\VC\ATLMFC\INCLUDE\ATLCHECKED.H
C:\PROGRAM FILES (X86)\MICROSOFT VISUAL STUDIO 11.0\VC\ATLMFC\INCLUDE\ATLEXCEPT.H
C:\PROGRAM FILES (X86)\MICROSOFT VISUAL STUDIO 11.0\VC\INCLUDE\WCHAR.H
C:\PROGRAM FILES (X86)\MICROSOFT VISUAL STUDIO 11.0\VC\ATLMFC\INCLUDE\ATLSIMPCOLL.H
C:\PROGRAM FILES (X86)\MICROSOFT VISUAL STUDIO 11.0\VC\ATLMFC\INCLUDE\ATLWINVERAPI.H
C:\PROGRAM FILES (X86)\MICROSOFT VISUAL STUDIO 11.0\VC\ATLMFC\INCLUDE\CSTRINGT.H
C:\PROGRAM FILES (X86)\MICROSOFT VISUAL STUDIO 11.0\VC\ATLMFC\INCLUDE\ATLSIMPSTR.H
C:\PROGRAM FILES (X86)\MICROSOFT VISUAL STUDIO 11.0\VC\ATLMFC\INCLUDE\ATLMEM.H
C:\PROGRAM FILES (X86)\MICROSOFT VISUAL STUDIO 11.0\VC\ATLMFC\INCLUDE\ATLCOMMEM.H
C:\PROGRAM FILES (X86)\MICROSOFT VISUAL STUDIO 11.0\VC\ATLMFC\INCLUDE\ATLCOMCLI.H
C:\PROGRAM FILES (X86)\MICROSOFT SDKS\WINDOWS\V7.1A\INCLUDE\OLECTL.H
C:\PROGRAM FILES (X86)\MICROSOFT SDKS\WINDOWS\V7.1A\INCLUDE\OCIDL.H
C:\PROGRAM FILES (X86)\MICROSOFT VISUAL STUDIO 11.0\VC\ATLMFC\INCLUDE\CSTRINGT.INL
C:\PROGRAM FILES (X86)\MICROSOFT VISUAL STUDIO 11.0\VC\ATLMFC\INCLUDE\ATLTRANSACTIONMANAGER.H
C:\PROGRAM FILES (X86)\MICROSOFT SDKS\WINDOWS\V7.1A\INCLUDE\KTMW32.H
C:\PROGRAM FILES (X86)\MICROSOFT VISUAL STUDIO 11.0\VC\ATLMFC\INCLUDE\ATLTIME.H
C:\PROGRAM FILES (X86)\MICROSOFT SDKS\WINDOWS\V7.1A\INCLUDE\OLEDB.H
C:\PROGRAM FILES (X86)\MICROSOFT SDKS\WINDOWS\V7.1A\INCLUDE\TRANSACT.H
C:\PROGRAM FILES (X86)\MICROSOFT SDKS\WINDOWS\V7.1A\INCLUDE\ACCCTRL.H
C:\PROGRAM FILES (X86)\MICROSOFT VISUAL STUDIO 11.0\VC\ATLMFC\INCLUDE\AFXCOLL.H
C:\PROGRAM FILES (X86)\MICROSOFT VISUAL STUDIO 11.0\VC\ATLMFC\INCLUDE\AFXSTAT_.H
C:\PROGRAM FILES (X86)\MICROSOFT VISUAL STUDIO 11.0\VC\ATLMFC\INCLUDE\ATLTYPES.H
C:\PROGRAM FILES (X86)\MICROSOFT VISUAL STUDIO 11.0\VC\ATLMFC\INCLUDE\AFXTLS_.H
C:\PROGRAM FILES (X86)\MICROSOFT VISUAL STUDIO 11.0\VC\ATLMFC\INCLUDE\AFX.INL
C:\PROGRAM FILES (X86)\MICROSOFT SDKS\WINDOWS\V7.1A\INCLUDE\SHELLAPI.H
C:\PROGRAM FILES (X86)\MICROSOFT VISUAL STUDIO 11.0\VC\ATLMFC\INCLUDE\AFXRES.H
C:\PROGRAM FILES (X86)\MICROSOFT SDKS\WINDOWS\V7.1A\INCLUDE\COMMDLG.H
C:\PROGRAM FILES (X86)\MICROSOFT VISUAL STUDIO 11.0\VC\ATLMFC\INCLUDE\AFXCTRLCONTAINER.H
C:\PROGRAM FILES (X86)\MICROSOFT SDKS\WINDOWS\V7.1A\INCLUDE\SHOBJIDL.H
C:\PROGRAM FILES (X86)\MICROSOFT SDKS\WINDOWS\V7.1A\INCLUDE\DOCOBJ.H
C:\PROGRAM FILES (X86)\MICROSOFT SDKS\WINDOWS\V7.1A\INCLUDE\SHTYPES.H
C:\PROGRAM FILES (X86)\MICROSOFT SDKS\WINDOWS\V7.1A\INCLUDE\COMCAT.H
C:\PROGRAM FILES (X86)\MICROSOFT SDKS\WINDOWS\V7.1A\INCLUDE\PROPSYS.H
C:\PROGRAM FILES (X86)\MICROSOFT SDKS\WINDOWS\V7.1A\INCLUDE\STRUCTUREDQUERYCONDITION.H
C:\PROGRAM FILES (X86)\MICROSOFT SDKS\WINDOWS\V7.1A\INCLUDE\PROPKEYDEF.H
C:\PROGRAM FILES (X86)\MICROSOFT SDKS\WINDOWS\V7.1A\INCLUDE\OBJECTARRAY.H
C:\PROGRAM FILES (X86)\MICROSOFT SDKS\WINDOWS\V7.1A\INCLUDE\SHERRORS.H
C:\PROGRAM FILES (X86)\MICROSOFT SDKS\WINDOWS\V7.1A\INCLUDE\THUMBCACHE.H
C:\PROGRAM FILES (X86)\MICROSOFT VISUAL STUDIO 11.0\VC\ATLMFC\INCLUDE\ATLHANDLER.H
C:\PROGRAM FILES (X86)\MICROSOFT SDKS\WINDOWS\V7.1A\INCLUDE\FILTER.H
C:\PROGRAM FILES (X86)\MICROSOFT VISUAL STUDIO 11.0\VC\ATLMFC\INCLUDE\ATLSTR.H
C:\PROGRAM FILES (X86)\MICROSOFT VISUAL STUDIO 11.0\VC\ATLMFC\INCLUDE\ATLBASE.H
C:\PROGRAM FILES (X86)\MICROSOFT SDKS\WINDOWS\V7.1A\INCLUDE\WINSOCK2.H
C:\PROGRAM FILES (X86)\MICROSOFT SDKS\WINDOWS\V7.1A\INCLUDE\WS2DEF.H
C:\PROGRAM FILES (X86)\MICROSOFT SDKS\WINDOWS\V7.1A\INCLUDE\INADDR.H
C:\PROGRAM FILES (X86)\MICROSOFT SDKS\WINDOWS\V7.1A\INCLUDE\QOS.H
C:\PROGRAM FILES (X86)\MICROSOFT VISUAL STUDIO 11.0\VC\ATLMFC\INCLUDE\ATLIFACE.H
C:\PROGRAM FILES (X86)\MICROSOFT SDKS\WINDOWS\V7.1A\INCLUDE\OLEACC.H
C:\PROGRAM FILES (X86)\MICROSOFT VISUAL STUDIO 11.0\VC\INCLUDE\PROCESS.H
C:\PROGRAM FILES (X86)\MICROSOFT SDKS\WINDOWS\V7.1A\INCLUDE\SHLWAPI.H
C:\PROGRAM FILES (X86)\MICROSOFT VISUAL STUDIO 11.0\VC\ATLMFC\INCLUDE\STATREG.H
C:\PROGRAM FILES (X86)\MICROSOFT VISUAL STUDIO 11.0\VC\ATLMFC\INCLUDE\ATLBASE.INL
C:\PROGRAM FILES (X86)\MICROSOFT SDKS\WINDOWS\V7.1A\INCLUDE\TPCSHRD.H
C:\PROGRAM FILES (X86)\MICROSOFT SDKS\WINDOWS\V7.1A\INCLUDE\VSSYM32.H
C:\PROGRAM FILES (X86)\MICROSOFT SDKS\WINDOWS\V7.1A\INCLUDE\VSSTYLE.H
C:\PROGRAM FILES (X86)\MICROSOFT SDKS\WINDOWS\V7.1A\INCLUDE\WS2IPDEF.H
C:\PROGRAM FILES (X86)\MICROSOFT SDKS\WINDOWS\V7.1A\INCLUDE\IN6ADDR.H
C:\PROGRAM FILES (X86)\MICROSOFT SDKS\WINDOWS\V7.1A\INCLUDE\WINDNS.H
C:\PROGRAM FILES (X86)\MICROSOFT SDKS\WINDOWS\V7.1A\INCLUDE\IPHLPAPI.H
C:\PROGRAM FILES (X86)\MICROSOFT SDKS\WINDOWS\V7.1A\INCLUDE\IPRTRMIB.H
C:\PROGRAM FILES (X86)\MICROSOFT SDKS\WINDOWS\V7.1A\INCLUDE\MPRAPI.H
C:\PROGRAM FILES (X86)\MICROSOFT SDKS\WINDOWS\V7.1A\INCLUDE\LMCONS.H
C:\PROGRAM FILES (X86)\MICROSOFT SDKS\WINDOWS\V7.1A\INCLUDE\RAS.H
C:\PROGRAM FILES (X86)\MICROSOFT SDKS\WINDOWS\V7.1A\INCLUDE\WINCRYPT.H
C:\PROGRAM FILES (X86)\MICROSOFT SDKS\WINDOWS\V7.1A\INCLUDE\BCRYPT.H
C:\PROGRAM FILES (X86)\MICROSOFT SDKS\WINDOWS\V7.1A\INCLUDE\NCRYPT.H
C:\PROGRAM FILES (X86)\MICROSOFT SDKS\WINDOWS\V7.1A\INCLUDE\IPIFCONS.H
C:\PROGRAM FILES (X86)\MICROSOFT SDKS\WINDOWS\V7.1A\INCLUDE\IPMIB.H
C:\PROGRAM FILES (X86)\MICROSOFT SDKS\WINDOWS\V7.1A\INCLUDE\IFMIB.H
C:\PROGRAM FILES (X86)\MICROSOFT SDKS\WINDOWS\V7.1A\INCLUDE\IFDEF.H
C:\PROGRAM FILES (X86)\MICROSOFT SDKS\WINDOWS\V7.1A\INCLUDE\NLDEF.H
C:\PROGRAM FILES (X86)\MICROSOFT SDKS\WINDOWS\V7.1A\INCLUDE\TCPMIB.H
C:\PROGRAM FILES (X86)\MICROSOFT SDKS\WINDOWS\V7.1A\INCLUDE\UDPMIB.H
C:\PROGRAM FILES (X86)\MICROSOFT SDKS\WINDOWS\V7.1A\INCLUDE\IPEXPORT.H
C:\PROGRAM FILES (X86)\MICROSOFT SDKS\WINDOWS\V7.1A\INCLUDE\PACKON.H
C:\PROGRAM FILES (X86)\MICROSOFT SDKS\WINDOWS\V7.1A\INCLUDE\PACKOFF.H
C:\PROGRAM FILES (X86)\MICROSOFT SDKS\WINDOWS\V7.1A\INCLUDE\IPTYPES.H
C:\PROGRAM FILES (X86)\MICROSOFT SDKS\WINDOWS\V7.1A\INCLUDE\TCPESTATS.H
C:\PROGRAM FILES (X86)\MICROSOFT SDKS\WINDOWS\V7.1A\INCLUDE\NETIOAPI.H
C:\PROGRAM FILES (X86)\MICROSOFT SDKS\WINDOWS\V7.1A\INCLUDE\NTDDNDIS.H
C:\PROGRAM FILES (X86)\MICROSOFT SDKS\WINDOWS\V7.1A\INCLUDE\DEVPKEY.H
C:\PROGRAM FILES (X86)\MICROSOFT SDKS\WINDOWS\V7.1A\INCLUDE\DEVPROPDEF.H
C:\PROGRAM FILES (X86)\MICROSOFT SDKS\WINDOWS\V7.1A\INCLUDE\PCIPROP.H
C:\PROGRAM FILES (X86)\MICROSOFT SDKS\WINDOWS\V7.1A\INCLUDE\WINDOT11.H
C:\PROGRAM FILES (X86)\MICROSOFT SDKS\WINDOWS\V7.1A\INCLUDE\WLANTYPES.H
C:\PROGRAM FILES (X86)\MICROSOFT SDKS\WINDOWS\V7.1A\INCLUDE\DWMAPI.H
C:\PROGRAM FILES (X86)\MICROSOFT SDKS\WINDOWS\V7.1A\INCLUDE\UXTHEME.H
C:\PROGRAM FILES (X86)\MICROSOFT SDKS\WINDOWS\V7.1A\INCLUDE\HTMLHELP.H
C:\PROGRAM FILES (X86)\MICROSOFT SDKS\WINDOWS\V7.1A\INCLUDE\UIANIMATION.H
C:\PROGRAM FILES (X86)\MICROSOFT VISUAL STUDIO 11.0\VC\ATLMFC\INCLUDE\AFXANIMATIONCONTROLLER.H
C:\PROGRAM FILES (X86)\MICROSOFT VISUAL STUDIO 11.0\VC\ATLMFC\INCLUDE\AFXANIMATIONHELPER.H
C:\PROGRAM FILES (X86)\MICROSOFT VISUAL STUDIO 11.0\VC\ATLMFC\INCLUDE\AFXTEMPL.H
C:\PROGRAM FILES (X86)\MICROSOFT VISUAL STUDIO 11.0\VC\ATLMFC\INCLUDE\AFXPLEX_.H
C:\PROGRAM FILES (X86)\MICROSOFT VISUAL STUDIO 11.0\VC\ATLMFC\INCLUDE\AFXMSG_.H
C:\PROGRAM FILES (X86)\MICROSOFT VISUAL STUDIO 11.0\VC\ATLMFC\INCLUDE\AFXDD_.H
C:\PROGRAM FILES (X86)\MICROSOFT VISUAL STUDIO 11.0\VC\ATLMFC\INCLUDE\AFXRENDERTARGET.H
C:\PROGRAM FILES (X86)\MICROSOFT SDKS\WINDOWS\V7.1A\INCLUDE\D2D1.H
C:\PROGRAM FILES (X86)\MICROSOFT SDKS\WINDOWS\V7.1A\INCLUDE\DCOMMON.H
C:\PROGRAM FILES (X86)\MICROSOFT SDKS\WINDOWS\V7.1A\INCLUDE\D2DERR.H
C:\PROGRAM FILES (X86)\MICROSOFT SDKS\WINDOWS\V7.1A\INCLUDE\D2DBASETYPES.H
C:\PROGRAM FILES (X86)\MICROSOFT SDKS\WINDOWS\V7.1A\INCLUDE\DXGIFORMAT.H
C:\PROGRAM FILES (X86)\MICROSOFT SDKS\WINDOWS\V7.1A\INCLUDE\D3D10_1.H
C:\PROGRAM FILES (X86)\MICROSOFT SDKS\WINDOWS\V7.1A\INCLUDE\D3D10.H
C:\PROGRAM FILES (X86)\MICROSOFT SDKS\WINDOWS\V7.1A\INCLUDE\DXGI.H
C:\PROGRAM FILES (X86)\MICROSOFT SDKS\WINDOWS\V7.1A\INCLUDE\DXGITYPE.H
C:\PROGRAM FILES (X86)\MICROSOFT SDKS\WINDOWS\V7.1A\INCLUDE\D3D10SDKLAYERS.H
C:\PROGRAM FILES (X86)\MICROSOFT SDKS\WINDOWS\V7.1A\INCLUDE\D3D10MISC.H
C:\PROGRAM FILES (X86)\MICROSOFT SDKS\WINDOWS\V7.1A\INCLUDE\D3D10SHADER.H
C:\PROGRAM FILES (X86)\MICROSOFT SDKS\WINDOWS\V7.1A\INCLUDE\D3D10EFFECT.H
C:\PROGRAM FILES (X86)\MICROSOFT SDKS\WINDOWS\V7.1A\INCLUDE\D3D10_1SHADER.H
C:\PROGRAM FILES (X86)\MICROSOFT SDKS\WINDOWS\V7.1A\INCLUDE\D2D1HELPER.H
C:\PROGRAM FILES (X86)\MICROSOFT SDKS\WINDOWS\V7.1A\INCLUDE\DWRITE.H
C:\PROGRAM FILES (X86)\MICROSOFT SDKS\WINDOWS\V7.1A\INCLUDE\WINCODEC.H
C:\PROGRAM FILES (X86)\MICROSOFT SDKS\WINDOWS\V7.1A\INCLUDE\INTSAFE.H
C:\PROGRAM FILES (X86)\MICROSOFT VISUAL STUDIO 11.0\VC\ATLMFC\INCLUDE\AFXWIN4.INL
C:\PROGRAM FILES (X86)\MICROSOFT VISUAL STUDIO 11.0\VC\ATLMFC\INCLUDE\AFXEXT.H
C:\PROGRAM FILES (X86)\MICROSOFT VISUAL STUDIO 11.0\VC\ATLMFC\INCLUDE\AFXDLGS.H
C:\PROGRAM FILES (X86)\MICROSOFT SDKS\WINDOWS\V7.1A\INCLUDE\RICHEDIT.H
C:\PROGRAM FILES (X86)\MICROSOFT VISUAL STUDIO 11.0\VC\ATLMFC\INCLUDE\AFXOLE.H
C:\PROGRAM FILES (X86)\MICROSOFT VISUAL STUDIO 11.0\VC\ATLMFC\INCLUDE\AFXDISP.H
C:\PROGRAM FILES (X86)\MICROSOFT SDKS\WINDOWS\V7.1A\INCLUDE\SHLOBJ.H
C:\PROGRAM FILES (X86)\MICROSOFT SDKS\WINDOWS\V7.1A\INCLUDE\SHLGUID.H
C:\PROGRAM FILES (X86)\MICROSOFT SDKS\WINDOWS\V7.1A\INCLUDE\ISGUIDS.H
C:\PROGRAM FILES (X86)\MICROSOFT SDKS\WINDOWS\V7.1A\INCLUDE\EXDISP.H
C:\PROGRAM FILES (X86)\MICROSOFT SDKS\WINDOWS\V7.1A\INCLUDE\SHLDISP.H
C:\PROGRAM FILES (X86)\MICROSOFT SDKS\WINDOWS\V7.1A\INCLUDE\KNOWNFOLDERS.H
C:\PROGRAM FILES (X86)\MICROSOFT VISUAL STUDIO 11.0\VC\ATLMFC\INCLUDE\ATLCOMTIME.H
C:\PROGRAM FILES (X86)\MICROSOFT VISUAL STUDIO 11.0\VC\ATLMFC\INCLUDE\AFXOCC.H
C:\PROGRAM FILES (X86)\MICROSOFT VISUAL STUDIO 11.0\VC\ATLMFC\INCLUDE\OLEBIND.H
C:\PROGRAM FILES (X86)\MICROSOFT VISUAL STUDIO 11.0\VC\ATLMFC\INCLUDE\OCDBID.H
C:\PROGRAM FILES (X86)\MICROSOFT VISUAL STUDIO 11.0\VC\ATLMFC\INCLUDE\OCDB.H
C:\PROGRAM FILES (X86)\MICROSOFT VISUAL STUDIO 11.0\VC\ATLMFC\INCLUDE\AFXCOM_.H
C:\PROGRAM FILES (X86)\MICROSOFT VISUAL STUDIO 11.0\VC\ATLMFC\INCLUDE\AFXODLGS.H
C:\PROGRAM FILES (X86)\MICROSOFT SDKS\WINDOWS\V7.1A\INCLUDE\OLEDLG.H
C:\PROGRAM FILES (X86)\MICROSOFT SDKS\WINDOWS\V7.1A\INCLUDE\DLGS.H
C:\PROGRAM FILES (X86)\MICROSOFT VISUAL STUDIO 11.0\VC\ATLMFC\INCLUDE\AFXDB.H
C:\PROGRAM FILES (X86)\MICROSOFT VISUAL STUDIO 11.0\VC\ATLMFC\INCLUDE\AFXDB_.H
C:\PROGRAM FILES (X86)\MICROSOFT SDKS\WINDOWS\V7.1A\INCLUDE\SQLTYPES.H
C:\PROGRAM FILES (X86)\MICROSOFT SDKS\WINDOWS\V7.1A\INCLUDE\SQL.H
C:\PROGRAM FILES (X86)\MICROSOFT SDKS\WINDOWS\V7.1A\INCLUDE\SQLEXT.H
C:\PROGRAM FILES (X86)\MICROSOFT SDKS\WINDOWS\V7.1A\INCLUDE\SQLUCODE.H
C:\PROGRAM FILES (X86)\MICROSOFT VISUAL STUDIO 11.0\VC\ATLMFC\INCLUDE\AFXDAO.H
C:\PROGRAM FILES (X86)\MICROSOFT SDKS\WINDOWS\V7.1A\INCLUDE\DBDAOINT.H
C:\PROGRAM FILES (X86)\MICROSOFT SDKS\WINDOWS\V7.1A\INCLUDE\DAOGETRW.H
C:\PROGRAM FILES (X86)\MICROSOFT SDKS\WINDOWS\V7.1A\INCLUDE\DBDAOID.H
C:\PROGRAM FILES (X86)\MICROSOFT SDKS\WINDOWS\V7.1A\INCLUDE\DBDAOERR.H
C:\PROGRAM FILES (X86)\MICROSOFT VISUAL STUDIO 11.0\VC\ATLMFC\INCLUDE\AFXDTCTL.H
C:\PROGRAM FILES (X86)\MICROSOFT VISUAL STUDIO 11.0\VC\ATLMFC\INCLUDE\AFXCMN.H
C:\PROGRAM FILES (X86)\MICROSOFT SDKS\WINDOWS\V7.1A\INCLUDE\RICHOLE.H
C:\PROGRAM FILES (X86)\MICROSOFT VISUAL STUDIO 11.0\VC\ATLMFC\INCLUDE\AFXCMN3.INL
^C:\WORK_IDTECH\_CODE\PRODUCTS\PCTOOLS\002_CUSTOMER\2017\FELICASDK\_NOW\00_IDT_USB_HID_DLL_TW\USB_HID_IDTW_EXT01.CPP
C:\WORK_IDTECH\_CODE\PRODUCTS\PCTOOLS\002_CUSTOMER\2017\FELICASDK\_NOW\00_IDT_USB_HID_DLL_TW\DEBUG\USB_HID_IDTW.PCH
C:\WORK_IDTECH\_CODE\PRODUCTS\PCTOOLS\002_CUSTOMER\2017\FELICASDK\_NOW\00_IDT_USB_HID_DLL_TW\IDT_USB_HID.H
C:\PROGRAM FILES (X86)\MICROSOFT SDKS\WINDOWS\V7.1A\INCLUDE\SETUPAPI.H
C:\PROGRAM FILES (X86)\MICROSOFT SDKS\WINDOWS\V7.1A\INCLUDE\SPAPIDEF.H
C:\PROGRAM FILES (X86)\MICROSOFT SDKS\WINDOWS\V7.1A\INCLUDE\DEVPROPDEF.H
C:\PROGRAM FILES (X86)\MICROSOFT SDKS\WINDOWS\V7.1A\INCLUDE\PSHPACK1.H
C:\PROGRAM FILES (X86)\MICROSOFT SDKS\WINDOWS\V7.1A\INCLUDE\POPPACK.H
C:\WORK_IDTECH\_CODE\PRODUCTS\PCTOOLS\002_CUSTOMER\2017\FELICASDK\_NOW\00_IDT_USB_HID_DLL_TW\HIDSDI.H
C:\PROGRAM FILES (X86)\MICROSOFT SDKS\WINDOWS\V7.1A\INCLUDE\PSHPACK4.H
C:\WORK_IDTECH\_CODE\PRODUCTS\PCTOOLS\002_CUSTOMER\2017\FELICASDK\_NOW\00_IDT_USB_HID_DLL_TW\HIDUSAGE.H
C:\WORK_IDTECH\_CODE\PRODUCTS\PCTOOLS\002_CUSTOMER\2017\FELICASDK\_NOW\00_IDT_USB_HID_DLL_TW\HIDPI.H
C:\WORK_IDTECH\_CODE\PRODUCTS\PCTOOLS\002_CUSTOMER\2017\FELICASDK\_NOW\00_IDT_USB_HID_DLL_TW\GLOBAL_RS232_USBHID.H
C:\WORK_IDTECH\_CODE\PRODUCTS\PCTOOLS\002_CUSTOMER\2017\FELICASDK\_NOW\00_IDT_USB_HID_DLL_TW\USB_HID_IDTW.H
C:\WORK_IDTECH\_CODE\PRODUCTS\PCTOOLS\002_CUSTOMER\2017\FELICASDK\_NOW\00_IDT_USB_HID_DLL_TW\RESOURCE.H
C:\PROGRAM FILES (X86)\MICROSOFT VISUAL STUDIO 11.0\VC\INCLUDE\IOSTREAM
C:\PROGRAM FILES (X86)\MICROSOFT VISUAL STUDIO 11.0\VC\INCLUDE\ISTREAM
C:\PROGRAM FILES (X86)\MICROSOFT VISUAL STUDIO 11.0\VC\INCLUDE\OSTREAM
C:\PROGRAM FILES (X86)\MICROSOFT VISUAL STUDIO 11.0\VC\INCLUDE\IOS
C:\PROGRAM FILES (X86)\MICROSOFT VISUAL STUDIO 11.0\VC\INCLUDE\XLOCNUM
C:\PROGRAM FILES (X86)\MICROSOFT VISUAL STUDIO 11.0\VC\INCLUDE\CLIMITS
C:\PROGRAM FILES (X86)\MICROSOFT VISUAL STUDIO 11.0\VC\INCLUDE\YVALS.H
C:\PROGRAM FILES (X86)\MICROSOFT VISUAL STUDIO 11.0\VC\INCLUDE\XKEYCHECK.H
C:\PROGRAM FILES (X86)\MICROSOFT VISUAL STUDIO 11.0\VC\INCLUDE\CRTDEFS.H
C:\PROGRAM FILES (X86)\MICROSOFT VISUAL STUDIO 11.0\VC\INCLUDE\USE_ANSI.H
C:\PROGRAM FILES (X86)\MICROSOFT VISUAL STUDIO 11.0\VC\INCLUDE\CMATH
C:\PROGRAM FILES (X86)\MICROSOFT VISUAL STUDIO 11.0\VC\INCLUDE\MATH.H
C:\PROGRAM FILES (X86)\MICROSOFT VISUAL STUDIO 11.0\VC\INCLUDE\XTGMATH.H
C:\PROGRAM FILES (X86)\MICROSOFT VISUAL STUDIO 11.0\VC\INCLUDE\XTR1COMMON
C:\PROGRAM FILES (X86)\MICROSOFT VISUAL STUDIO 11.0\VC\INCLUDE\CSTDIO
C:\PROGRAM FILES (X86)\MICROSOFT VISUAL STUDIO 11.0\VC\INCLUDE\CSTDLIB
C:\PROGRAM FILES (X86)\MICROSOFT VISUAL STUDIO 11.0\VC\INCLUDE\STREAMBUF
C:\PROGRAM FILES (X86)\MICROSOFT VISUAL STUDIO 11.0\VC\INCLUDE\XIOSBASE
C:\PROGRAM FILES (X86)\MICROSOFT VISUAL STUDIO 11.0\VC\INCLUDE\XLOCALE
C:\PROGRAM FILES (X86)\MICROSOFT VISUAL STUDIO 11.0\VC\INCLUDE\CSTRING
C:\PROGRAM FILES (X86)\MICROSOFT VISUAL STUDIO 11.0\VC\INCLUDE\STDEXCEPT
C:\PROGRAM FILES (X86)\MICROSOFT VISUAL STUDIO 11.0\VC\INCLUDE\EXCEPTION
C:\PROGRAM FILES (X86)\MICROSOFT VISUAL STUDIO 11.0\VC\INCLUDE\XSTDDEF
C:\PROGRAM FILES (X86)\MICROSOFT VISUAL STUDIO 11.0\VC\INCLUDE\CSTDDEF
C:\PROGRAM FILES (X86)\MICROSOFT VISUAL STUDIO 11.0\VC\INCLUDE\EH.H
C:\PROGRAM FILES (X86)\MICROSOFT VISUAL STUDIO 11.0\VC\INCLUDE\XSTRING
C:\PROGRAM FILES (X86)\MICROSOFT VISUAL STUDIO 11.0\VC\INCLUDE\XMEMORY0
C:\PROGRAM FILES (X86)\MICROSOFT VISUAL STUDIO 11.0\VC\INCLUDE\LIMITS
C:\PROGRAM FILES (X86)\MICROSOFT VISUAL STUDIO 11.0\VC\INCLUDE\YMATH.H
C:\PROGRAM FILES (X86)\MICROSOFT VISUAL STUDIO 11.0\VC\INCLUDE\CFLOAT
C:\PROGRAM FILES (X86)\MICROSOFT VISUAL STUDIO 11.0\VC\INCLUDE\FLOAT.H
C:\PROGRAM FILES (X86)\MICROSOFT VISUAL STUDIO 11.0\VC\INCLUDE\CRTWRN.H
C:\PROGRAM FILES (X86)\MICROSOFT VISUAL STUDIO 11.0\VC\INCLUDE\CWCHAR
C:\PROGRAM FILES (X86)\MICROSOFT VISUAL STUDIO 11.0\VC\INCLUDE\NEW
C:\PROGRAM FILES (X86)\MICROSOFT VISUAL STUDIO 11.0\VC\INCLUDE\XUTILITY
C:\PROGRAM FILES (X86)\MICROSOFT VISUAL STUDIO 11.0\VC\INCLUDE\UTILITY
C:\PROGRAM FILES (X86)\MICROSOFT VISUAL STUDIO 11.0\VC\INCLUDE\IOSFWD
C:\PROGRAM FILES (X86)\MICROSOFT VISUAL STUDIO 11.0\VC\INCLUDE\TYPE_TRAITS
C:\PROGRAM FILES (X86)\MICROSOFT VISUAL STUDIO 11.0\VC\INCLUDE\XREFWRAP
C:\PROGRAM FILES (X86)\MICROSOFT VISUAL STUDIO 11.0\VC\INCLUDE\XATOMIC0.H
C:\PROGRAM FILES (X86)\MICROSOFT VISUAL STUDIO 11.0\VC\INCLUDE\INTRIN.H
C:\PROGRAM FILES (X86)\MICROSOFT VISUAL STUDIO 11.0\VC\INCLUDE\SETJMP.H
C:\PROGRAM FILES (X86)\MICROSOFT VISUAL STUDIO 11.0\VC\INCLUDE\IMMINTRIN.H
C:\PROGRAM FILES (X86)\MICROSOFT VISUAL STUDIO 11.0\VC\INCLUDE\WMMINTRIN.H
C:\PROGRAM FILES (X86)\MICROSOFT VISUAL STUDIO 11.0\VC\INCLUDE\NMMINTRIN.H
C:\PROGRAM FILES (X86)\MICROSOFT VISUAL STUDIO 11.0\VC\INCLUDE\SMMINTRIN.H
C:\PROGRAM FILES (X86)\MICROSOFT VISUAL STUDIO 11.0\VC\INCLUDE\TMMINTRIN.H
C:\PROGRAM FILES (X86)\MICROSOFT VISUAL STUDIO 11.0\VC\INCLUDE\PMMINTRIN.H
C:\PROGRAM FILES (X86)\MICROSOFT VISUAL STUDIO 11.0\VC\INCLUDE\EMMINTRIN.H
C:\PROGRAM FILES (X86)\MICROSOFT VISUAL STUDIO 11.0\VC\INCLUDE\XMMINTRIN.H
C:\PROGRAM FILES (X86)\MICROSOFT VISUAL STUDIO 11.0\VC\INCLUDE\MMINTRIN.H
C:\PROGRAM FILES (X86)\MICROSOFT VISUAL STUDIO 11.0\VC\INCLUDE\AMMINTRIN.H
C:\PROGRAM FILES (X86)\MICROSOFT VISUAL STUDIO 11.0\VC\INCLUDE\MM3DNOW.H
C:\PROGRAM FILES (X86)\MICROSOFT VISUAL STUDIO 11.0\VC\INCLUDE\TYPEINFO
C:\PROGRAM FILES (X86)\MICROSOFT VISUAL STUDIO 11.0\VC\INCLUDE\XLOCINFO
C:\PROGRAM FILES (X86)\MICROSOFT VISUAL STUDIO 11.0\VC\INCLUDE\XLOCINFO.H
C:\PROGRAM FILES (X86)\MICROSOFT VISUAL STUDIO 11.0\VC\INCLUDE\LOCALE.H
C:\PROGRAM FILES (X86)\MICROSOFT VISUAL STUDIO 11.0\VC\INCLUDE\XDEBUG
C:\PROGRAM FILES (X86)\MICROSOFT VISUAL STUDIO 11.0\VC\INCLUDE\XMEMORY
C:\PROGRAM FILES (X86)\MICROSOFT VISUAL STUDIO 11.0\VC\INCLUDE\XFACET
C:\PROGRAM FILES (X86)\MICROSOFT VISUAL STUDIO 11.0\VC\INCLUDE\SYSTEM_ERROR
C:\PROGRAM FILES (X86)\MICROSOFT VISUAL STUDIO 11.0\VC\INCLUDE\CERRNO
C:\PROGRAM FILES (X86)\MICROSOFT VISUAL STUDIO 11.0\VC\INCLUDE\SHARE.H
^C:\WORK_IDTECH\_CODE\PRODUCTS\PCTOOLS\002_CUSTOMER\2017\FELICASDK\_NOW\00_IDT_USB_HID_DLL_TW\TCONVERT.CPP
C:\WORK_IDTECH\_CODE\PRODUCTS\PCTOOLS\002_CUSTOMER\2017\FELICASDK\_NOW\00_IDT_USB_HID_DLL_TW\DEBUG\USB_HID_IDTW.PCH
C:\WORK_IDTECH\_CODE\PRODUCTS\PCTOOLS\002_CUSTOMER\2017\FELICASDK\_NOW\00_IDT_USB_HID_DLL_TW\TCONVERT.H
^C:\WORK_IDTECH\_CODE\PRODUCTS\PCTOOLS\002_CUSTOMER\2017\FELICASDK\_NOW\00_IDT_USB_HID_DLL_TW\USB_HID_IDTW.CPP
C:\WORK_IDTECH\_CODE\PRODUCTS\PCTOOLS\002_CUSTOMER\2017\FELICASDK\_NOW\00_IDT_USB_HID_DLL_TW\DEBUG\USB_HID_IDTW.PCH
C:\WORK_IDTECH\_CODE\PRODUCTS\PCTOOLS\002_CUSTOMER\2017\FELICASDK\_NOW\00_IDT_USB_HID_DLL_TW\IDT_USB_HID.H
C:\PROGRAM FILES (X86)\MICROSOFT SDKS\WINDOWS\V7.1A\INCLUDE\SETUPAPI.H
C:\PROGRAM FILES (X86)\MICROSOFT SDKS\WINDOWS\V7.1A\INCLUDE\SPAPIDEF.H
C:\PROGRAM FILES (X86)\MICROSOFT SDKS\WINDOWS\V7.1A\INCLUDE\DEVPROPDEF.H
C:\PROGRAM FILES (X86)\MICROSOFT SDKS\WINDOWS\V7.1A\INCLUDE\PSHPACK1.H
C:\PROGRAM FILES (X86)\MICROSOFT SDKS\WINDOWS\V7.1A\INCLUDE\POPPACK.H
C:\WORK_IDTECH\_CODE\PRODUCTS\PCTOOLS\002_CUSTOMER\2017\FELICASDK\_NOW\00_IDT_USB_HID_DLL_TW\HIDSDI.H
C:\PROGRAM FILES (X86)\MICROSOFT SDKS\WINDOWS\V7.1A\INCLUDE\PSHPACK4.H
C:\WORK_IDTECH\_CODE\PRODUCTS\PCTOOLS\002_CUSTOMER\2017\FELICASDK\_NOW\00_IDT_USB_HID_DLL_TW\HIDUSAGE.H
C:\WORK_IDTECH\_CODE\PRODUCTS\PCTOOLS\002_CUSTOMER\2017\FELICASDK\_NOW\00_IDT_USB_HID_DLL_TW\HIDPI.H
C:\WORK_IDTECH\_CODE\PRODUCTS\PCTOOLS\002_CUSTOMER\2017\FELICASDK\_NOW\00_IDT_USB_HID_DLL_TW\GLOBAL_RS232_USBHID.H
C:\WORK_IDTECH\_CODE\PRODUCTS\PCTOOLS\002_CUSTOMER\2017\FELICASDK\_NOW\00_IDT_USB_HID_DLL_TW\USB_HID_IDTW.H
C:\WORK_IDTECH\_CODE\PRODUCTS\PCTOOLS\002_CUSTOMER\2017\FELICASDK\_NOW\00_IDT_USB_HID_DLL_TW\RESOURCE.H
C:\PROGRAM FILES (X86)\MICROSOFT VISUAL STUDIO 11.0\VC\INCLUDE\IOSTREAM
C:\PROGRAM FILES (X86)\MICROSOFT VISUAL STUDIO 11.0\VC\INCLUDE\ISTREAM
C:\PROGRAM FILES (X86)\MICROSOFT VISUAL STUDIO 11.0\VC\INCLUDE\OSTREAM
C:\PROGRAM FILES (X86)\MICROSOFT VISUAL STUDIO 11.0\VC\INCLUDE\IOS
C:\PROGRAM FILES (X86)\MICROSOFT VISUAL STUDIO 11.0\VC\INCLUDE\XLOCNUM
C:\PROGRAM FILES (X86)\MICROSOFT VISUAL STUDIO 11.0\VC\INCLUDE\CLIMITS
C:\PROGRAM FILES (X86)\MICROSOFT VISUAL STUDIO 11.0\VC\INCLUDE\YVALS.H
C:\PROGRAM FILES (X86)\MICROSOFT VISUAL STUDIO 11.0\VC\INCLUDE\XKEYCHECK.H
C:\PROGRAM FILES (X86)\MICROSOFT VISUAL STUDIO 11.0\VC\INCLUDE\CRTDEFS.H
C:\PROGRAM FILES (X86)\MICROSOFT VISUAL STUDIO 11.0\VC\INCLUDE\USE_ANSI.H
C:\PROGRAM FILES (X86)\MICROSOFT VISUAL STUDIO 11.0\VC\INCLUDE\CMATH
C:\PROGRAM FILES (X86)\MICROSOFT VISUAL STUDIO 11.0\VC\INCLUDE\MATH.H
C:\PROGRAM FILES (X86)\MICROSOFT VISUAL STUDIO 11.0\VC\INCLUDE\XTGMATH.H
C:\PROGRAM FILES (X86)\MICROSOFT VISUAL STUDIO 11.0\VC\INCLUDE\XTR1COMMON
C:\PROGRAM FILES (X86)\MICROSOFT VISUAL STUDIO 11.0\VC\INCLUDE\CSTDIO
C:\PROGRAM FILES (X86)\MICROSOFT VISUAL STUDIO 11.0\VC\INCLUDE\CSTDLIB
C:\PROGRAM FILES (X86)\MICROSOFT VISUAL STUDIO 11.0\VC\INCLUDE\STREAMBUF
C:\PROGRAM FILES (X86)\MICROSOFT VISUAL STUDIO 11.0\VC\INCLUDE\XIOSBASE
C:\PROGRAM FILES (X86)\MICROSOFT VISUAL STUDIO 11.0\VC\INCLUDE\XLOCALE
C:\PROGRAM FILES (X86)\MICROSOFT VISUAL STUDIO 11.0\VC\INCLUDE\CSTRING
C:\PROGRAM FILES (X86)\MICROSOFT VISUAL STUDIO 11.0\VC\INCLUDE\STDEXCEPT
C:\PROGRAM FILES (X86)\MICROSOFT VISUAL STUDIO 11.0\VC\INCLUDE\EXCEPTION
C:\PROGRAM FILES (X86)\MICROSOFT VISUAL STUDIO 11.0\VC\INCLUDE\XSTDDEF
C:\PROGRAM FILES (X86)\MICROSOFT VISUAL STUDIO 11.0\VC\INCLUDE\CSTDDEF
C:\PROGRAM FILES (X86)\MICROSOFT VISUAL STUDIO 11.0\VC\INCLUDE\EH.H
C:\PROGRAM FILES (X86)\MICROSOFT VISUAL STUDIO 11.0\VC\INCLUDE\XSTRING
C:\PROGRAM FILES (X86)\MICROSOFT VISUAL STUDIO 11.0\VC\INCLUDE\XMEMORY0
C:\PROGRAM FILES (X86)\MICROSOFT VISUAL STUDIO 11.0\VC\INCLUDE\LIMITS
C:\PROGRAM FILES (X86)\MICROSOFT VISUAL STUDIO 11.0\VC\INCLUDE\YMATH.H
C:\PROGRAM FILES (X86)\MICROSOFT VISUAL STUDIO 11.0\VC\INCLUDE\CFLOAT
C:\PROGRAM FILES (X86)\MICROSOFT VISUAL STUDIO 11.0\VC\INCLUDE\FLOAT.H
C:\PROGRAM FILES (X86)\MICROSOFT VISUAL STUDIO 11.0\VC\INCLUDE\CRTWRN.H
C:\PROGRAM FILES (X86)\MICROSOFT VISUAL STUDIO 11.0\VC\INCLUDE\CWCHAR
C:\PROGRAM FILES (X86)\MICROSOFT VISUAL STUDIO 11.0\VC\INCLUDE\NEW
C:\PROGRAM FILES (X86)\MICROSOFT VISUAL STUDIO 11.0\VC\INCLUDE\XUTILITY
C:\PROGRAM FILES (X86)\MICROSOFT VISUAL STUDIO 11.0\VC\INCLUDE\UTILITY
C:\PROGRAM FILES (X86)\MICROSOFT VISUAL STUDIO 11.0\VC\INCLUDE\IOSFWD
C:\PROGRAM FILES (X86)\MICROSOFT VISUAL STUDIO 11.0\VC\INCLUDE\TYPE_TRAITS
C:\PROGRAM FILES (X86)\MICROSOFT VISUAL STUDIO 11.0\VC\INCLUDE\XREFWRAP
C:\PROGRAM FILES (X86)\MICROSOFT VISUAL STUDIO 11.0\VC\INCLUDE\XATOMIC0.H
C:\PROGRAM FILES (X86)\MICROSOFT VISUAL STUDIO 11.0\VC\INCLUDE\INTRIN.H
C:\PROGRAM FILES (X86)\MICROSOFT VISUAL STUDIO 11.0\VC\INCLUDE\SETJMP.H
C:\PROGRAM FILES (X86)\MICROSOFT VISUAL STUDIO 11.0\VC\INCLUDE\IMMINTRIN.H
C:\PROGRAM FILES (X86)\MICROSOFT VISUAL STUDIO 11.0\VC\INCLUDE\WMMINTRIN.H
C:\PROGRAM FILES (X86)\MICROSOFT VISUAL STUDIO 11.0\VC\INCLUDE\NMMINTRIN.H
C:\PROGRAM FILES (X86)\MICROSOFT VISUAL STUDIO 11.0\VC\INCLUDE\SMMINTRIN.H
C:\PROGRAM FILES (X86)\MICROSOFT VISUAL STUDIO 11.0\VC\INCLUDE\TMMINTRIN.H
C:\PROGRAM FILES (X86)\MICROSOFT VISUAL STUDIO 11.0\VC\INCLUDE\PMMINTRIN.H
C:\PROGRAM FILES (X86)\MICROSOFT VISUAL STUDIO 11.0\VC\INCLUDE\EMMINTRIN.H
C:\PROGRAM FILES (X86)\MICROSOFT VISUAL STUDIO 11.0\VC\INCLUDE\XMMINTRIN.H
C:\PROGRAM FILES (X86)\MICROSOFT VISUAL STUDIO 11.0\VC\INCLUDE\MMINTRIN.H
C:\PROGRAM FILES (X86)\MICROSOFT VISUAL STUDIO 11.0\VC\INCLUDE\AMMINTRIN.H
C:\PROGRAM FILES (X86)\MICROSOFT VISUAL STUDIO 11.0\VC\INCLUDE\MM3DNOW.H
C:\PROGRAM FILES (X86)\MICROSOFT VISUAL STUDIO 11.0\VC\INCLUDE\TYPEINFO
C:\PROGRAM FILES (X86)\MICROSOFT VISUAL STUDIO 11.0\VC\INCLUDE\XLOCINFO
C:\PROGRAM FILES (X86)\MICROSOFT VISUAL STUDIO 11.0\VC\INCLUDE\XLOCINFO.H
C:\PROGRAM FILES (X86)\MICROSOFT VISUAL STUDIO 11.0\VC\INCLUDE\LOCALE.H
C:\PROGRAM FILES (X86)\MICROSOFT VISUAL STUDIO 11.0\VC\INCLUDE\XDEBUG
C:\PROGRAM FILES (X86)\MICROSOFT VISUAL STUDIO 11.0\VC\INCLUDE\XMEMORY
C:\PROGRAM FILES (X86)\MICROSOFT VISUAL STUDIO 11.0\VC\INCLUDE\XFACET
C:\PROGRAM FILES (X86)\MICROSOFT VISUAL STUDIO 11.0\VC\INCLUDE\SYSTEM_ERROR
C:\PROGRAM FILES (X86)\MICROSOFT VISUAL STUDIO 11.0\VC\INCLUDE\CERRNO
C:\PROGRAM FILES (X86)\MICROSOFT VISUAL STUDIO 11.0\VC\INCLUDE\SHARE.H
^C:\WORK_IDTECH\_CODE\PRODUCTS\PCTOOLS\002_CUSTOMER\2017\FELICASDK\_NOW\00_IDT_USB_HID_DLL_TW\IDT_USB_HID.CPP
C:\WORK_IDTECH\_CODE\PRODUCTS\PCTOOLS\002_CUSTOMER\2017\FELICASDK\_NOW\00_IDT_USB_HID_DLL_TW\DEBUG\USB_HID_IDTW.PCH
C:\WORK_IDTECH\_CODE\PRODUCTS\PCTOOLS\002_CUSTOMER\2017\FELICASDK\_NOW\00_IDT_USB_HID_DLL_TW\IDT_USB_HID.H
C:\PROGRAM FILES (X86)\MICROSOFT SDKS\WINDOWS\V7.1A\INCLUDE\SETUPAPI.H
C:\PROGRAM FILES (X86)\MICROSOFT SDKS\WINDOWS\V7.1A\INCLUDE\SPAPIDEF.H
C:\PROGRAM FILES (X86)\MICROSOFT SDKS\WINDOWS\V7.1A\INCLUDE\DEVPROPDEF.H
C:\PROGRAM FILES (X86)\MICROSOFT SDKS\WINDOWS\V7.1A\INCLUDE\PSHPACK1.H
C:\PROGRAM FILES (X86)\MICROSOFT SDKS\WINDOWS\V7.1A\INCLUDE\POPPACK.H
C:\WORK_IDTECH\_CODE\PRODUCTS\PCTOOLS\002_CUSTOMER\2017\FELICASDK\_NOW\00_IDT_USB_HID_DLL_TW\HIDSDI.H
C:\PROGRAM FILES (X86)\MICROSOFT SDKS\WINDOWS\V7.1A\INCLUDE\PSHPACK4.H
C:\WORK_IDTECH\_CODE\PRODUCTS\PCTOOLS\002_CUSTOMER\2017\FELICASDK\_NOW\00_IDT_USB_HID_DLL_TW\HIDUSAGE.H
C:\WORK_IDTECH\_CODE\PRODUCTS\PCTOOLS\002_CUSTOMER\2017\FELICASDK\_NOW\00_IDT_USB_HID_DLL_TW\HIDPI.H
C:\WORK_IDTECH\_CODE\PRODUCTS\PCTOOLS\002_CUSTOMER\2017\FELICASDK\_NOW\00_IDT_USB_HID_DLL_TW\GLOBAL_RS232_USBHID.H
C:\WORK_IDTECH\_CODE\PRODUCTS\PCTOOLS\002_CUSTOMER\2017\FELICASDK\_NOW\00_IDT_USB_HID_DLL_TW\TCONVERT.H
C:\PROGRAM FILES (X86)\MICROSOFT VISUAL STUDIO 11.0\VC\INCLUDE\IOSTREAM
C:\PROGRAM FILES (X86)\MICROSOFT VISUAL STUDIO 11.0\VC\INCLUDE\ISTREAM
C:\PROGRAM FILES (X86)\MICROSOFT VISUAL STUDIO 11.0\VC\INCLUDE\OSTREAM
C:\PROGRAM FILES (X86)\MICROSOFT VISUAL STUDIO 11.0\VC\INCLUDE\IOS
C:\PROGRAM FILES (X86)\MICROSOFT VISUAL STUDIO 11.0\VC\INCLUDE\XLOCNUM
C:\PROGRAM FILES (X86)\MICROSOFT VISUAL STUDIO 11.0\VC\INCLUDE\CLIMITS
C:\PROGRAM FILES (X86)\MICROSOFT VISUAL STUDIO 11.0\VC\INCLUDE\YVALS.H
C:\PROGRAM FILES (X86)\MICROSOFT VISUAL STUDIO 11.0\VC\INCLUDE\XKEYCHECK.H
C:\PROGRAM FILES (X86)\MICROSOFT VISUAL STUDIO 11.0\VC\INCLUDE\CRTDEFS.H
C:\PROGRAM FILES (X86)\MICROSOFT VISUAL STUDIO 11.0\VC\INCLUDE\USE_ANSI.H
C:\PROGRAM FILES (X86)\MICROSOFT VISUAL STUDIO 11.0\VC\INCLUDE\CMATH
C:\PROGRAM FILES (X86)\MICROSOFT VISUAL STUDIO 11.0\VC\INCLUDE\MATH.H
C:\PROGRAM FILES (X86)\MICROSOFT VISUAL STUDIO 11.0\VC\INCLUDE\XTGMATH.H
C:\PROGRAM FILES (X86)\MICROSOFT VISUAL STUDIO 11.0\VC\INCLUDE\XTR1COMMON
C:\PROGRAM FILES (X86)\MICROSOFT VISUAL STUDIO 11.0\VC\INCLUDE\CSTDIO
C:\PROGRAM FILES (X86)\MICROSOFT VISUAL STUDIO 11.0\VC\INCLUDE\CSTDLIB
C:\PROGRAM FILES (X86)\MICROSOFT VISUAL STUDIO 11.0\VC\INCLUDE\STREAMBUF
C:\PROGRAM FILES (X86)\MICROSOFT VISUAL STUDIO 11.0\VC\INCLUDE\XIOSBASE
C:\PROGRAM FILES (X86)\MICROSOFT VISUAL STUDIO 11.0\VC\INCLUDE\XLOCALE
C:\PROGRAM FILES (X86)\MICROSOFT VISUAL STUDIO 11.0\VC\INCLUDE\CSTRING
C:\PROGRAM FILES (X86)\MICROSOFT VISUAL STUDIO 11.0\VC\INCLUDE\STDEXCEPT
C:\PROGRAM FILES (X86)\MICROSOFT VISUAL STUDIO 11.0\VC\INCLUDE\EXCEPTION
C:\PROGRAM FILES (X86)\MICROSOFT VISUAL STUDIO 11.0\VC\INCLUDE\XSTDDEF
C:\PROGRAM FILES (X86)\MICROSOFT VISUAL STUDIO 11.0\VC\INCLUDE\CSTDDEF
C:\PROGRAM FILES (X86)\MICROSOFT VISUAL STUDIO 11.0\VC\INCLUDE\EH.H
C:\PROGRAM FILES (X86)\MICROSOFT VISUAL STUDIO 11.0\VC\INCLUDE\XSTRING
C:\PROGRAM FILES (X86)\MICROSOFT VISUAL STUDIO 11.0\VC\INCLUDE\XMEMORY0
C:\PROGRAM FILES (X86)\MICROSOFT VISUAL STUDIO 11.0\VC\INCLUDE\LIMITS
C:\PROGRAM FILES (X86)\MICROSOFT VISUAL STUDIO 11.0\VC\INCLUDE\YMATH.H
C:\PROGRAM FILES (X86)\MICROSOFT VISUAL STUDIO 11.0\VC\INCLUDE\CFLOAT
C:\PROGRAM FILES (X86)\MICROSOFT VISUAL STUDIO 11.0\VC\INCLUDE\FLOAT.H
C:\PROGRAM FILES (X86)\MICROSOFT VISUAL STUDIO 11.0\VC\INCLUDE\CRTWRN.H
C:\PROGRAM FILES (X86)\MICROSOFT VISUAL STUDIO 11.0\VC\INCLUDE\CWCHAR
C:\PROGRAM FILES (X86)\MICROSOFT VISUAL STUDIO 11.0\VC\INCLUDE\NEW
C:\PROGRAM FILES (X86)\MICROSOFT VISUAL STUDIO 11.0\VC\INCLUDE\XUTILITY
C:\PROGRAM FILES (X86)\MICROSOFT VISUAL STUDIO 11.0\VC\INCLUDE\UTILITY
C:\PROGRAM FILES (X86)\MICROSOFT VISUAL STUDIO 11.0\VC\INCLUDE\IOSFWD
C:\PROGRAM FILES (X86)\MICROSOFT VISUAL STUDIO 11.0\VC\INCLUDE\TYPE_TRAITS
C:\PROGRAM FILES (X86)\MICROSOFT VISUAL STUDIO 11.0\VC\INCLUDE\XREFWRAP
C:\PROGRAM FILES (X86)\MICROSOFT VISUAL STUDIO 11.0\VC\INCLUDE\XATOMIC0.H
C:\PROGRAM FILES (X86)\MICROSOFT VISUAL STUDIO 11.0\VC\INCLUDE\INTRIN.H
C:\PROGRAM FILES (X86)\MICROSOFT VISUAL STUDIO 11.0\VC\INCLUDE\SETJMP.H
C:\PROGRAM FILES (X86)\MICROSOFT VISUAL STUDIO 11.0\VC\INCLUDE\IMMINTRIN.H
C:\PROGRAM FILES (X86)\MICROSOFT VISUAL STUDIO 11.0\VC\INCLUDE\WMMINTRIN.H
C:\PROGRAM FILES (X86)\MICROSOFT VISUAL STUDIO 11.0\VC\INCLUDE\NMMINTRIN.H
C:\PROGRAM FILES (X86)\MICROSOFT VISUAL STUDIO 11.0\VC\INCLUDE\SMMINTRIN.H
C:\PROGRAM FILES (X86)\MICROSOFT VISUAL STUDIO 11.0\VC\INCLUDE\TMMINTRIN.H
C:\PROGRAM FILES (X86)\MICROSOFT VISUAL STUDIO 11.0\VC\INCLUDE\PMMINTRIN.H
C:\PROGRAM FILES (X86)\MICROSOFT VISUAL STUDIO 11.0\VC\INCLUDE\EMMINTRIN.H
C:\PROGRAM FILES (X86)\MICROSOFT VISUAL STUDIO 11.0\VC\INCLUDE\XMMINTRIN.H
C:\PROGRAM FILES (X86)\MICROSOFT VISUAL STUDIO 11.0\VC\INCLUDE\MMINTRIN.H
C:\PROGRAM FILES (X86)\MICROSOFT VISUAL STUDIO 11.0\VC\INCLUDE\AMMINTRIN.H
C:\PROGRAM FILES (X86)\MICROSOFT VISUAL STUDIO 11.0\VC\INCLUDE\MM3DNOW.H
C:\PROGRAM FILES (X86)\MICROSOFT VISUAL STUDIO 11.0\VC\INCLUDE\TYPEINFO
C:\PROGRAM FILES (X86)\MICROSOFT VISUAL STUDIO 11.0\VC\INCLUDE\XLOCINFO
C:\PROGRAM FILES (X86)\MICROSOFT VISUAL STUDIO 11.0\VC\INCLUDE\XLOCINFO.H
C:\PROGRAM FILES (X86)\MICROSOFT VISUAL STUDIO 11.0\VC\INCLUDE\LOCALE.H
C:\PROGRAM FILES (X86)\MICROSOFT VISUAL STUDIO 11.0\VC\INCLUDE\XDEBUG
C:\PROGRAM FILES (X86)\MICROSOFT VISUAL STUDIO 11.0\VC\INCLUDE\XMEMORY
C:\PROGRAM FILES (X86)\MICROSOFT VISUAL STUDIO 11.0\VC\INCLUDE\XFACET
C:\PROGRAM FILES (X86)\MICROSOFT VISUAL STUDIO 11.0\VC\INCLUDE\SYSTEM_ERROR
C:\PROGRAM FILES (X86)\MICROSOFT VISUAL STUDIO 11.0\VC\INCLUDE\CERRNO
C:\PROGRAM FILES (X86)\MICROSOFT VISUAL STUDIO 11.0\VC\INCLUDE\SHARE.H
