^C:\WORK_IDTECH\_CODE\PRODUCTS\PCTOOLS\002_CUSTOMER\2017\FELICASDK\_NOW\00_IDT_USB_HID_DLL_TW\STDAFX.CPP
C:\WORK_IDTECH\_CODE\PRODUCTS\PCTOOLS\002_CUSTOMER\2017\FELICASDK\_NOW\00_IDT_USB_HID_DLL_TW\DEBUG\USB_HID_IDTW.PCH
C:\WORK_IDTECH\_CODE\PRODUCTS\PCTOOLS\002_CUSTOMER\2017\FELICASDK\_NOW\00_IDT_USB_HID_DLL_TW\DEBUG\STDAFX.OBJ
C:\WORK_IDTECH\_CODE\PRODUCTS\PCTOOLS\002_CUSTOMER\2017\FELICASDK\_NOW\00_IDT_USB_HID_DLL_TW\DEBUG\VC110.PDB
^C:\WORK_IDTECH\_CODE\PRODUCTS\PCTOOLS\002_CUSTOMER\2017\FELICASDK\_NOW\00_IDT_USB_HID_DLL_TW\IDT_USB_HID.CPP|C:\WORK_IDTECH\_CODE\PRODUCTS\PCTOOLS\002_CUSTOMER\2017\FELICASDK\_NOW\00_IDT_USB_HID_DLL_TW\TCONVERT.CPP|C:\WORK_IDTECH\_CODE\PRODUCTS\PCTOOLS\002_CUSTOMER\2017\FELICASDK\_NOW\00_IDT_USB_HID_DLL_TW\USB_HID_IDTW.CPP|C:\WORK_IDTECH\_CODE\PRODUCTS\PCTOOLS\002_CUSTOMER\2017\FELICASDK\_NOW\00_IDT_USB_HID_DLL_TW\USB_HID_IDTW_EXT01.CPP
C:\WORK_IDTECH\_CODE\PRODUCTS\PCTOOLS\002_CUSTOMER\2017\FELICASDK\_NOW\00_IDT_USB_HID_DLL_TW\DEBUG\IDT_USB_HID.OBJ
C:\WORK_IDTECH\_CODE\PRODUCTS\PCTOOLS\002_CUSTOMER\2017\FELICASDK\_NOW\00_IDT_USB_HID_DLL_TW\DEBUG\USB_HID_IDTW.OBJ
C:\WORK_IDTECH\_CODE\PRODUCTS\PCTOOLS\002_CUSTOMER\2017\FELICASDK\_NOW\00_IDT_USB_HID_DLL_TW\DEBUG\TCONVERT.OBJ
C:\WORK_IDTECH\_CODE\PRODUCTS\PCTOOLS\002_CUSTOMER\2017\FELICASDK\_NOW\00_IDT_USB_HID_DLL_TW\DEBUG\USB_HID_IDTW_EXT01.OBJ
^C:\WORK_IDTECH\_CODE\PRODUCTS\PCTOOLS\002_CUSTOMER\2017\FELICASDK\_NOW\00_IDT_USB_HID_DLL_TW\IDT_USB_HID.CPP
C:\WORK_IDTECH\_CODE\PRODUCTS\PCTOOLS\002_CUSTOMER\2017\FELICASDK\_NOW\00_IDT_USB_HID_DLL_TW\DEBUG\VC110.PDB
^C:\WORK_IDTECH\_CODE\PRODUCTS\PCTOOLS\002_CUSTOMER\2017\FELICASDK\_NOW\00_IDT_USB_HID_DLL_TW\USB_HID_IDTW.CPP
C:\WORK_IDTECH\_CODE\PRODUCTS\PCTOOLS\002_CUSTOMER\2017\FELICASDK\_NOW\00_IDT_USB_HID_DLL_TW\DEBUG\VC110.PDB
^C:\WORK_IDTECH\_CODE\PRODUCTS\PCTOOLS\002_CUSTOMER\2017\FELICASDK\_NOW\00_IDT_USB_HID_DLL_TW\TCONVERT.CPP
C:\WORK_IDTECH\_CODE\PRODUCTS\PCTOOLS\002_CUSTOMER\2017\FELICASDK\_NOW\00_IDT_USB_HID_DLL_TW\DEBUG\VC110.PDB
^C:\WORK_IDTECH\_CODE\PRODUCTS\PCTOOLS\002_CUSTOMER\2017\FELICASDK\_NOW\00_IDT_USB_HID_DLL_TW\USB_HID_IDTW_EXT01.CPP
C:\WORK_IDTECH\_CODE\PRODUCTS\PCTOOLS\002_CUSTOMER\2017\FELICASDK\_NOW\00_IDT_USB_HID_DLL_TW\DEBUG\VC110.PDB
