^C:\WORK_IDTECH\_CODE\PRODUCTS\PCTOOLS\002_CUSTOMER\2017\FELICASDK\_NOW\00_IDT_USB_HID_DLL_TW\DEBUG\IDT_USB_HID.OBJ|C:\WORK_IDTECH\_CODE\PRODUCTS\PCTOOLS\002_CUSTOMER\2017\FELICASDK\_NOW\00_IDT_USB_HID_DLL_TW\DEBUG\STDAFX.OBJ|C:\WORK_IDTECH\_CODE\PRODUCTS\PCTOOLS\002_CUSTOMER\2017\FELICASDK\_NOW\00_IDT_USB_HID_DLL_TW\DEBUG\TCONVERT.OBJ|C:\WORK_IDTECH\_CODE\PRODUCTS\PCTOOLS\002_CUSTOMER\2017\FELICASDK\_NOW\00_IDT_USB_HID_DLL_TW\DEBUG\USB_HID_IDTW.OBJ|C:\WORK_IDTECH\_CODE\PRODUCTS\PCTOOLS\002_CUSTOMER\2017\FELICASDK\_NOW\00_IDT_USB_HID_DLL_TW\DEBUG\USB_HID_IDTW.RES|C:\WORK_IDTECH\_CODE\PRODUCTS\PCTOOLS\002_CUSTOMER\2017\FELICASDK\_NOW\00_IDT_USB_HID_DLL_TW\DEBUG\USB_HID_IDTW_EXT01.OBJ
C:\WORK_IDTECH\_CODE\PRODUCTS\PCTOOLS\002_CUSTOMER\2017\FELICASDK\_NOW\DEBUG\USB_HID_IDTW_32BIT.ILK
C:\WORK_IDTECH\_CODE\PRODUCTS\PCTOOLS\002_CUSTOMER\2017\FELICASDK\_NOW\DEBUG\USB_HID_IDTW_32BIT.DLL
C:\WORK_IDTECH\_CODE\PRODUCTS\PCTOOLS\002_CUSTOMER\2017\FELICASDK\_NOW\DEBUG\USB_HID_IDTW.PDB
